username,Test 1 run 1 ms,Test 1 run 2 ms,Test 1 run 3 ms,Test 1 run 4 ms,Test 2 run 1 ms,Test 2 run 2 ms,Test 2 run 3 ms,Test 2 run 4 ms,Test 3 run 1 ms,Test 3 run 2 ms,Test 3 run 3 ms,Test 3 run 4 ms,Test 4 run 1 ms,Test 4 run 2 ms,Test 4 run 3 ms,Test 4 run 4 ms,Test 5 run 1 ms,Test 5 run 2 ms,Test 5 run 3 ms,Test 5 run 4 ms,Test 6 run 1 ms,Test 6 run 2 ms,Test 6 run 3 ms,Test 6 run 4 ms
semin-serg,2153,1727,1831,2030,14863,15549,14864,14923,11730,13998,13016,13122,202,137,152,171,3528,3161,3261,3227,12191,12989,12026,12351
vart,2227,2557,2391,2725,15022,15545,15919,15103,14750,15087,15526,15076,230,187,179,222,3931,4350,3697,3775,11913,12972,10865,9852
dnorlov,2826,2918,2935,2979,23220,23694,23751,23223,16218,16481,15643,15687,224,204,297,195,4588,4396,4488,4881,4999,6632,5474,4859
quid,2127,2117,2117,2193,22888,24556,23108,23484,25721,27690,26288,26697,181,165,158,172,3599,3415,3636,3784,17919,17391,17047,17258
kvk1920,2437,2730,2731,2741,16784,17740,17052,17335,20823,18258,fail,21648,170,177,184,188,7544,6801,7041,7727,11978,11880,11792,11830
pew-pew,4113,4554,4078,4304,25836,29113,26184,26229,19739,19789,19929,19671,222,224,229,206,7222,6949,6952,7283,8378,8761,8417,8499
SYury,5687,5461,5578,5531,24779,24402,23776,23643,26136,26890,25603,25420,217,227,189,214,4913,4759,4903,4747,12043,12165,12089,12149
s-reznick,15294,15775,15611,15214,33575,35524,34464,34568,56353,57409,fail,57884,1853,1816,1955,1813,30709,28599,28664,28355,25442,25303,25521,25023
cezarnik,32572,34246,32814,31626,67149,72130,69315,75816,110661,118542,113118,113797,340,323,331,336,59972,59744,59065,59151,56209,51833,52235,51815
mkspopov,8478,7487,7438,7592,42720,43098,44196,fail,31110,30969,30767,30923,fail,fail,fail,fail,7519,6881,7615,7465,12073,12200,12214,12078
sgjurano,25378,23745,23571,23730,61912,64440,62518,62504,85004,86053,86008,84562,fail,fail,fail,fail,fail,fail,fail,fail,48509,42726,47648,48469
yuryalekseev,fail,fail,fail,fail,fail,fail,fail,fail,fail,fail,fail,fail,fail,fail,fail,fail,16083,15772,16200,15679,13890,14197,14048,14137
